<?xml version="1.0" encoding="UTF-8"?>
<svg width="148px" height="48px" viewBox="0 0 148 48" version="1.1" xmlns="http://www.w3.org/2000/svg" xmlns:xlink="http://www.w3.org/1999/xlink">
    <!-- Generator: Sketch 40.3 (33839) - http://www.bohemiancoding.com/sketch -->
    <title>logo</title>
    <desc>Created with Sketch.</desc>
    <defs></defs>
    <g id="Page-1" stroke="none" stroke-width="1" fill="none" fill-rule="evenodd">
        <g id="logo">
            <path d="M65.479,18.226 C66.233,18.618 66.943,18.777 67.813,18.777 C68.741,18.777 69.668,18.342 69.668,17.182 C69.668,16.269 68.899,15.863 68.001,15.443 L67.247,15.081 C66.305,14.617 65.522,13.994 65.522,12.689 C65.522,10.775 67.189,9.993 68.696,9.993 C69.494,9.993 70.218,10.095 70.885,10.297 L70.798,11.573 C70.175,11.298 69.435,11.181 68.783,11.181 C67.971,11.181 67.043,11.529 67.043,12.602 C67.043,13.399 67.681,13.747 68.392,14.095 L69.189,14.457 C70.335,14.993 71.233,15.587 71.233,17.095 C71.233,19.067 69.74,19.965 67.884,19.965 C67.13,19.965 66.232,19.85 65.405,19.573 L65.479,18.226 L65.479,18.226 Z" id="Shape" fill="#000000"></path>
            <path d="M77.194,19.806 L77.151,18.66 C76.701,19.472 75.919,19.965 74.875,19.965 C73.57,19.965 72.469,19.327 72.469,17.819 C72.469,15.935 74.165,15.355 76.296,15.355 C76.484,15.355 76.89,15.355 77.108,15.37 L77.108,15.065 C77.108,14.006 76.6,13.427 75.456,13.427 C74.717,13.427 73.977,13.601 73.325,14.006 L73.238,12.891 C73.919,12.616 74.846,12.412 75.586,12.412 C77.456,12.412 78.529,13.209 78.529,15.166 L78.529,18.195 C78.529,18.819 78.557,19.297 78.616,19.804 L77.194,19.804 L77.194,19.806 Z M76.716,16.254 C75.281,16.254 73.904,16.457 73.904,17.733 C73.904,18.559 74.455,18.908 75.222,18.908 C76.541,18.908 77.107,17.864 77.107,16.646 L77.107,16.254 L76.716,16.254 L76.716,16.254 Z" id="Shape" fill="#000000"></path>
            <polygon id="Shape" fill="#000000" points="80.503 19.806 80.503 9.355 81.953 9.355 81.953 19.806"></polygon>
            <path d="M83.506,16.152 C83.506,13.949 84.912,12.413 87.071,12.413 C89.362,12.413 90.637,13.892 90.637,16.152 C90.637,18.356 89.362,19.964 87.071,19.964 C86.492,19.964 85.984,19.877 85.535,19.689 C84.216,19.11 83.506,17.806 83.506,16.152 L83.506,16.152 Z M87.071,18.863 C88.521,18.863 89.072,17.486 89.072,16.152 C89.072,14.862 88.564,13.5 87.071,13.5 C85.622,13.5 85.071,14.877 85.071,16.152 C85.071,16.804 85.216,17.486 85.52,18.007 C85.854,18.516 86.332,18.863 87.071,18.863 L87.071,18.863 Z" id="Shape" fill="#000000"></path>
            <path d="M92.207,19.806 L92.207,14.225 C92.207,13.66 92.192,13.123 92.135,12.558 L93.497,12.558 L93.541,13.805 C94.048,12.877 94.831,12.413 95.89,12.413 C97.687,12.413 98.325,13.544 98.325,15.225 L98.325,19.806 L96.861,19.806 L96.861,15.53 C96.861,14.515 96.658,13.545 95.426,13.545 C94.077,13.545 93.657,14.719 93.657,15.863 L93.657,19.806 L92.207,19.806 L92.207,19.806 Z" id="Shape" fill="#000000"></path>
            <path d="M99.835,21.879 C100.082,21.951 100.314,21.981 100.546,21.981 C101.285,21.981 101.589,21.488 101.894,20.516 L102.04,20.067 L99.445,12.558 L101.025,12.558 L102.794,18.516 L104.533,12.558 L106.012,12.558 L103.243,20.778 C102.851,21.894 102.329,23.097 100.807,23.097 C100.43,23.097 100.082,23.068 99.748,22.995 L99.835,21.879 L99.835,21.879 Z" id="Shape" fill="#000000"></path>
            <polygon id="Shape" fill="#000000" points="65.725 36.92 65.725 27.251 67.305 27.251 67.305 31.527 71.204 27.251 73.118 27.251 68.755 31.773 73.495 36.919 71.466 36.919 67.305 32.193 67.305 36.919 65.725 36.919"></polygon>
            <path d="M73.76,33.267 C73.76,31.064 75.166,29.528 77.325,29.528 C79.616,29.528 80.891,31.007 80.891,33.267 C80.891,35.471 79.616,37.079 77.325,37.079 C76.746,37.079 76.238,36.992 75.789,36.804 C74.47,36.224 73.76,34.92 73.76,33.267 L73.76,33.267 Z M77.325,35.978 C78.775,35.978 79.326,34.601 79.326,33.267 C79.326,31.977 78.818,30.615 77.325,30.615 C75.876,30.615 75.325,31.992 75.325,33.267 C75.325,33.919 75.47,34.601 75.774,35.122 C76.108,35.63 76.586,35.978 77.325,35.978 L77.325,35.978 Z" id="Shape" fill="#000000"></path>
            <path d="M82.143,35.615 C82.766,35.92 83.331,36.05 84.012,36.05 C84.781,36.05 85.39,35.761 85.39,34.963 C85.39,33.325 82.143,33.817 82.143,31.542 C82.143,30.006 83.505,29.527 84.781,29.527 C85.433,29.527 85.999,29.614 86.564,29.831 L86.477,30.89 C85.941,30.672 85.405,30.557 84.853,30.557 C84.215,30.557 83.549,30.716 83.549,31.47 C83.549,32.862 86.824,32.412 86.824,34.876 C86.824,36.456 85.389,37.079 84.055,37.079 C83.345,37.079 82.765,37.007 82.055,36.775 L82.143,35.615 L82.143,35.615 Z" id="Shape" fill="#000000"></path>
            <path d="M88.451,36.92 L88.451,31.339 C88.451,30.774 88.436,30.237 88.379,29.672 L89.741,29.672 L89.785,30.919 C90.264,29.991 91.003,29.527 92.003,29.527 C93.162,29.527 93.888,30.194 94.119,31.006 C94.467,30.107 95.409,29.527 96.337,29.527 C97.902,29.527 98.628,30.585 98.628,32.092 L98.628,36.919 L97.163,36.919 L97.163,32.266 C97.163,31.397 96.888,30.657 95.873,30.657 C94.685,30.657 94.265,31.846 94.265,32.963 L94.265,36.92 L92.815,36.92 L92.815,32.267 C92.815,31.398 92.54,30.658 91.525,30.658 C90.337,30.658 89.902,31.847 89.902,32.964 L89.902,36.921 L88.451,36.921 L88.451,36.92 Z" id="Shape" fill="#000000"></path>
            <path d="M101.678,33.615 C101.678,34.948 102.504,36.064 104.099,36.064 C104.751,36.064 105.476,35.919 106.056,35.615 L106.143,36.688 C105.461,36.963 104.693,37.079 103.896,37.079 C101.446,37.079 100.185,35.528 100.185,33.267 C100.185,31.282 101.417,29.528 103.504,29.528 C105.78,29.528 106.533,31.136 106.533,33.18 L106.533,33.616 L101.678,33.616 L101.678,33.615 Z M105.142,32.716 C105.142,31.614 104.824,30.528 103.519,30.528 C102.287,30.528 101.707,31.674 101.664,32.716 L105.142,32.716 L105.142,32.716 Z" id="Shape" fill="#000000"></path>
            <path d="M111.798,36.833 C111.349,36.992 110.857,37.079 110.406,37.079 C108.855,37.079 108.565,36.007 108.565,34.6 L108.565,30.715 L107.232,30.715 L107.232,29.671 L108.565,29.671 L108.565,28.106 L110.029,27.627 L110.029,29.671 L111.653,29.671 L111.653,30.715 L110.029,30.715 L110.029,34.774 C110.029,35.397 110.189,35.934 110.928,35.934 C111.203,35.934 111.464,35.875 111.725,35.76 L111.798,36.833 L111.798,36.833 Z" id="Shape" fill="#000000"></path>
            <path d="M112.612,38.993 C112.859,39.065 113.091,39.095 113.323,39.095 C114.062,39.095 114.366,38.602 114.671,37.63 L114.817,37.181 L112.222,29.672 L113.802,29.672 L115.571,35.63 L117.31,29.672 L118.789,29.672 L116.02,37.892 C115.628,39.007 115.106,40.211 113.584,40.211 C113.207,40.211 112.859,40.182 112.525,40.109 L112.612,38.993 L112.612,38.993 Z" id="Shape" fill="#000000"></path>
            <path d="M125.067,36.804 C124.488,37.022 123.922,37.079 123.241,37.079 C120.748,37.079 119.458,35.484 119.458,33.267 C119.458,31.021 120.994,29.528 123.27,29.528 C123.908,29.528 124.458,29.556 125.082,29.774 L124.995,30.934 C124.546,30.716 124.039,30.615 123.474,30.615 C121.894,30.615 121.024,31.761 121.024,33.267 C121.024,34.717 121.85,35.978 123.561,35.978 C124.097,35.978 124.517,35.876 124.996,35.66 L125.067,36.804 L125.067,36.804 Z" id="Shape" fill="#000000"></path>
            <polygon id="Shape" fill="#000000" points="125.955 36.92 125.955 35.746 129.985 30.716 126.115 30.716 126.115 29.672 131.608 29.672 131.608 30.846 127.593 35.862 131.637 35.862 131.637 36.921 125.955 36.921"></polygon>
            <path d="M133.062,36.92 L133.062,31.339 C133.062,30.774 133.047,30.237 132.99,29.672 L134.352,29.672 L134.396,30.919 C134.903,29.991 135.686,29.527 136.745,29.527 C138.542,29.527 139.18,30.657 139.18,32.339 L139.18,36.92 L137.716,36.92 L137.716,32.644 C137.716,31.629 137.513,30.658 136.281,30.658 C134.932,30.658 134.512,31.833 134.512,32.978 L134.512,36.92 L133.062,36.92 L133.062,36.92 Z" id="Shape" fill="#000000"></path>
            <path d="M142.227,33.615 C142.227,34.948 143.053,36.064 144.648,36.064 C145.3,36.064 146.025,35.919 146.605,35.615 L146.692,36.688 C146.01,36.963 145.242,37.079 144.445,37.079 C141.995,37.079 140.734,35.528 140.734,33.267 C140.734,31.282 141.966,29.528 144.053,29.528 C146.329,29.528 147.082,31.136 147.082,33.18 L147.082,33.616 L142.227,33.616 L142.227,33.615 Z M145.69,32.716 C145.69,31.614 145.372,30.528 144.067,30.528 C142.835,30.528 142.255,31.674 142.212,32.716 L145.69,32.716 L145.69,32.716 Z" id="Shape" fill="#000000"></path>
            <path d="M4.104,0.86 C4.095,0.721 4.101,0.616 4.101,0.51 C5.857,0.51 7.945,0.518 9.583,0.51 C9.595,0.721 9.582,0.854 9.582,0.854 C9.118,0.853 9.171,0.82 8.797,0.854 C8.311,0.897 7.699,0.915 7.703,1.565 C7.703,5.172 7.697,8.388 7.7,12.029 C7.701,12.694 7.423,13.441 6.846,14.01 C5.794,15.047 3.578,15.698 1.923,14.446 C0.635,13.471 0.303,12.115 0.797,11.01 C1.21,10.088 2.227,9.918 2.843,10.158 C3.379,10.366 3.691,11.148 3.459,11.663 C3.271,12.084 3.175,12.127 2.127,12.245 C1.188,12.353 1.473,13.386 2.015,13.962 C2.704,14.693 3.958,14.917 4.7,14.57 C5.394,14.242 5.799,13.621 5.8,12.843 C5.804,8.885 5.801,5.753 5.8,1.607 C5.8,0.87 5.45,0.873 4.104,0.86 L4.104,0.86 L4.104,0.86 Z" id="Shape" fill="#000000"></path>
            <path d="M15.372,12.599 C15.188,13.352 14.928,13.704 14.928,13.704 C14.853,13.827 14.307,14.823 13.112,14.981 C12.893,15.008 11.602,15.107 10.552,14.252 C8.636,12.69 8.561,9.481 9.37,6.982 C9.997,5.042 11.4,4.245 13.097,4.696 C15.115,5.233 15.637,7.488 15.574,9.656 L10.918,9.656 C10.927,11.25 10.846,12.885 11.141,13.557 C11.176,13.66 11.212,13.753 11.372,13.986 C11.805,14.538 12.698,14.617 12.489,14.582 C13.645,14.775 14.217,14.036 14.217,14.036 C14.83,13.35 15.032,12.602 15.163,11.848 C15.163,11.848 15.544,11.766 15.529,11.854 C15.48,12.151 15.474,12.179 15.372,12.599 L15.372,12.599 L15.372,12.599 Z M13.592,9.3 C13.592,9.3 13.59,6.796 13.592,6.656 C13.599,6.245 13.451,4.885 12.223,4.885 C11.108,4.885 10.919,6.239 10.92,6.657 C10.922,7.903 10.92,7.882 10.92,9.301 L13.592,9.3 L13.592,9.3 L13.592,9.3 Z" id="Shape" fill="#000000"></path>
            <path d="M10.615,25.583 L10.977,25.583 L10.977,31.089 L1.272,31.089 L1.272,30.684 C1.272,30.684 2.018,30.653 2.415,30.598 C2.964,30.481 2.94,30.068 2.973,29.827 L2.973,17.778 C2.965,17.386 2.68,17.306 2.427,17.208 C2.252,17.141 1.861,17.071 1.29,17.068 C1.279,16.929 1.291,16.819 1.29,16.736 C3.177,16.747 4.51,16.747 6.651,16.736 C6.668,16.853 6.668,16.934 6.651,17.063 C6.252,17.064 5.706,17.064 5.382,17.172 C5.113,17.243 4.887,17.374 4.871,17.671 L4.871,29.914 C4.863,30.436 5.065,30.542 5.251,30.614 C5.895,30.674 7.129,30.674 7.589,30.531 C8.186,30.4 8.743,29.89 9.049,29.51 C9.38,29.129 9.826,28.502 9.998,28.051 C10.191,27.575 10.307,27.244 10.378,26.911 C10.543,26.247 10.543,26.129 10.615,25.583 L10.615,25.583 L10.615,25.583 Z" id="Shape" fill="#000000"></path>
            <path d="M28.986,14.848 L24.748,14.848 L24.748,14.54 C24.934,14.537 25.445,14.505 25.569,14.452 C25.956,14.322 26.012,14.007 26.019,13.767 L26.019,5.923 C26.007,5.604 25.853,5.431 25.569,5.336 C25.439,5.299 24.915,5.243 24.748,5.257 L24.748,4.926 C25.578,4.926 26.97,4.776 27.729,4.713 C27.752,5.259 27.693,5.532 27.764,6.172 C27.931,5.936 28.084,5.675 28.226,5.496 C28.654,4.915 29.022,4.772 29.16,4.69 C29.336,4.602 29.259,4.614 29.663,4.5 C30.15,4.356 30.837,4.405 31.407,4.725 C31.669,4.844 32.052,5.163 32.215,5.543 C32.515,6.219 32.479,6.92 32.479,7.811 L32.479,13.697 C32.489,14.16 32.696,14.365 32.975,14.447 C33.077,14.495 33.234,14.534 33.564,14.537 L33.564,14.848 L29.508,14.848 C29.508,14.848 29.51,14.67 29.51,14.551 C29.771,14.551 29.937,14.517 30.198,14.452 C30.641,14.378 30.601,13.876 30.601,13.721 L30.601,5.949 C30.601,5.652 30.423,5.247 29.937,5.131 C29.592,5.059 29.308,5.071 28.94,5.32 C28.81,5.415 28.51,5.74 28.342,5.976 C28.057,6.441 27.912,7.253 27.912,7.253 L27.912,13.804 C27.912,13.804 27.852,14.286 28.264,14.448 C28.583,14.54 28.757,14.541 28.987,14.541 C28.986,14.606 28.986,14.848 28.986,14.848 L28.986,14.848 L28.986,14.848 Z" id="Shape" fill="#000000"></path>
            <path d="M19.921,44.683 C20.095,44.679 20.124,44.679 20.252,44.683 C20.253,45.165 20.273,45.627 20.198,46.226 C20.186,46.482 20.051,46.83 19.89,47.02 C19.738,47.23 19.539,47.436 19.12,47.542 C18.718,47.637 18.336,47.547 18.242,47.531 C17.72,47.347 17.634,47.207 17.456,46.973 C17.376,46.877 17.269,46.682 17.189,46.504 C17.043,46.185 17.136,46.257 16.963,45.893 C16.904,46.137 16.774,46.303 16.636,46.545 C16.335,47.004 15.951,47.313 15.298,47.539 C14.953,47.624 14.1,47.633 13.554,47.375 C13.198,47.157 13.062,47.08 12.76,46.703 C12.445,46.285 12.296,45.924 12.205,45.405 C12.169,45.204 12.179,45.274 12.162,45.06 C12.126,44.705 12.141,44.535 12.182,44.182 C12.213,43.999 12.215,43.889 12.29,43.703 C12.393,43.33 12.651,43.074 12.741,42.925 C13.06,42.551 13.553,42.304 13.803,42.188 C14.871,41.746 15.346,41.559 16.295,41.076 C16.899,40.792 16.899,40.658 16.899,40.646 C16.942,40.532 16.899,38.598 16.899,38.498 C16.849,38.029 16.762,37.816 16.378,37.608 C15.76,37.188 14.977,37.404 14.905,37.418 C14.621,37.439 14.004,37.857 14.004,38.321 C13.969,38.618 14.562,38.601 14.83,38.842 C15.036,38.973 15.179,39.363 15.096,39.756 C14.953,40.144 14.906,40.32 14.419,40.55 C14.146,40.611 13.767,40.599 13.435,40.445 C13.209,40.315 13.114,40.243 12.884,39.891 C12.818,39.751 12.722,39.633 12.711,39.234 C12.711,38.854 12.771,38.7 12.865,38.426 C13.008,37.988 13.634,37.501 14.218,37.276 C14.424,37.181 14.784,37.092 14.906,37.087 C15.535,36.916 16.841,37.024 17.434,37.276 C17.703,37.384 18.586,37.608 18.764,38.961 L18.764,45.928 C18.764,45.928 18.715,46.481 19.095,46.675 C19.285,46.73 19.386,46.721 19.546,46.643 C19.785,46.508 19.824,46.231 19.845,46.094 C19.895,45.592 19.921,45.341 19.921,44.683 L19.921,44.683 L19.921,44.683 Z M16.902,41.205 C16.31,41.557 15.79,41.833 15.159,42.172 C14.316,42.626 14.206,43.504 14.206,43.936 C14.176,44.196 14.194,45.263 14.221,45.548 C14.221,45.539 14.186,46.435 14.957,46.723 C15.598,46.921 15.854,46.577 16.019,46.473 C16.175,46.34 16.317,46.173 16.473,45.87 C16.741,45.344 16.902,44.67 16.902,44.386 L16.902,41.336 C16.902,41.143 16.902,41.392 16.902,41.205 L16.902,41.205 L16.902,41.205 Z" id="Shape" fill="#000000"></path>
            <path d="M15.385,20.836 C18.234,20.836 19.04,24.405 19.04,26.09 C19.04,27.775 18.233,31.288 15.385,31.288 C12.537,31.288 11.73,27.774 11.73,26.09 C11.73,24.406 12.537,20.836 15.385,20.836 L15.385,20.836 L15.385,20.836 Z M16.881,22.734 C16.832,20.643 13.859,20.643 13.842,22.758 L13.842,29.317 C13.859,31.423 16.87,31.386 16.881,29.341 L16.881,22.734 L16.881,22.734 L16.881,22.734 Z" id="Shape" fill="#000000"></path>
            <path d="M23.934,21.211 C25.199,21.211 26.902,21.022 26.902,21.022 C26.902,21.022 26.904,30.066 26.902,30.052 C26.939,30.516 27.019,30.491 27.232,30.657 C27.336,30.723 27.737,30.761 27.737,30.761 L27.737,31.101 L25.19,31.101 C25.19,31.101 25.156,30.002 25.131,29.313 C24.966,29.551 24.716,30.04 24.573,30.217 C24.369,30.501 24.18,30.705 24.036,30.823 C23.662,31.16 22.481,31.606 21.369,30.964 C21.108,30.846 20.725,30.525 20.561,30.146 C20.261,29.469 20.297,28.9 20.297,28.01 L20.297,22.386 C20.288,21.923 20.252,21.756 19.802,21.636 C19.447,21.578 19.375,21.573 19.042,21.574 L19.042,21.235 C20.411,21.235 21.652,21.115 22.175,21.032 L22.176,29.743 C22.176,30.039 22.353,30.443 22.839,30.56 C23.288,30.609 23.486,30.574 23.837,30.37 C24.016,30.24 24.192,30.062 24.36,29.825 C24.806,29.231 25.006,28.398 25.006,28.398 L25.006,22.349 C25.006,22.349 25.085,21.702 24.679,21.612 C24.383,21.566 24.185,21.556 23.933,21.556 C23.944,21.354 23.944,21.389 23.934,21.211 L23.934,21.211 L23.934,21.211 Z" id="Shape" fill="#000000"></path>
            <path d="M29.235,17.785 C29.235,17.072 29.814,16.494 30.528,16.494 C31.242,16.494 31.82,17.072 31.82,17.785 C31.82,18.499 31.242,19.077 30.528,19.077 C29.814,19.077 29.235,18.499 29.235,17.785 L29.235,17.785 L29.235,17.785 Z" id="Shape" fill="#000000"></path>
            <text id="C" fill="#000000" font-family="Helvetica" font-size="2.0886" font-weight="normal">
                <tspan x="29.7729" y="18.4722">C</tspan>
            </text>
            <path d="M29.254,34.06 C29.254,33.347 29.833,32.768 30.546,32.768 C31.261,32.768 31.839,33.347 31.839,34.06 C31.839,34.775 31.261,35.353 30.546,35.353 C29.833,35.353 29.254,34.774 29.254,34.06 L29.254,34.06 L29.254,34.06 Z" id="Shape" fill="#000000"></path>
            <text id="R" fill="#000000" font-family="Helvetica" font-size="2.0886" font-weight="normal">
                <tspan x="29.8394" y="34.7559">R</tspan>
            </text>
            <path d="M33.4,23.613 C33.388,20.502 36.64,20.075 38.194,21.618 C38.595,21.905 38.765,21.71 38.858,21.595 C38.858,21.595 38.951,21.463 39.01,21.321 C39.048,21.226 39.119,20.967 39.119,20.967 L39.451,20.967 L39.451,24.728 L39.123,24.728 C38.999,24.124 38.889,23.751 38.668,23.299 C38.217,22.442 38.069,22.242 37.521,21.695 C36.277,20.494 34.558,21.235 34.539,22.638 C34.398,23.766 35.677,24.429 36.414,24.75 C39.167,26.006 39.935,26.513 40.021,28.287 C40.045,29.664 38.977,31.302 36.959,31.302 C35.903,31.267 35.369,30.982 34.705,30.494 C34.395,30.186 33.968,30.199 33.874,30.518 L33.805,30.757 L33.754,31.087 L33.4,31.087 L33.4,26.958 L33.718,26.958 C35.305,32.898 38.507,30.604 38.549,29.853 C38.881,28.726 38.443,28.073 37.933,27.706 C36.9,27.03 34.895,25.942 34.574,25.741 C34.052,25.398 33.404,24.858 33.4,23.613 L33.4,23.613 L33.4,23.613 Z" id="Shape" fill="#000000"></path>
            <path d="M1.235,33.028 L6.836,33.028 C11.322,33.55 11.868,38.867 11.82,40.292 C11.623,45.798 8.212,47.363 6.765,47.363 L1.19,47.363 L1.19,46.993 L2.226,46.938 C2.836,46.834 2.86,46.563 2.896,46.275 L2.896,34.143 C2.86,33.742 2.583,33.538 2.326,33.493 C1.935,33.426 1.235,33.403 1.235,33.403 L1.235,33.028 L1.235,33.028 L1.235,33.028 Z M4.938,46.367 C4.938,46.722 5.104,46.823 5.317,46.871 C5.827,46.918 6.824,46.91 7.085,46.791 C9.182,46.036 9.557,43.453 9.606,40.528 C9.782,36.363 8.716,33.517 6.741,33.511 C6.266,33.463 6.005,33.482 5.459,33.529 C5.103,33.577 4.984,33.838 4.937,34.147 L4.937,46.367 L4.938,46.367 L4.938,46.367 Z" id="Shape" fill="#000000"></path>
            <path d="M19.44,37.3 L23.522,37.3 L23.522,37.682 C23.189,37.682 23.212,37.718 22.927,37.813 C22.87,37.835 22.477,37.911 22.619,38.692 L24.352,44.128 C24.399,44.389 24.598,44.46 24.693,44.151 L26.226,39.025 C26.344,38.407 26.151,38.148 25.882,37.957 C25.621,37.767 25.62,37.796 25.407,37.742 C25.196,37.69 25.014,37.67 25.014,37.67 L25.014,37.295 L28.123,37.295 L28.123,37.635 C27.838,37.658 27.233,38.004 26.936,38.883 L24.328,47.487 C24.173,47.505 23.876,47.505 23.613,47.489 L20.694,38.669 C20.552,38.289 20.385,38.123 20.1,37.909 C19.816,37.696 19.437,37.688 19.437,37.688 L19.437,37.3 L19.44,37.3 L19.44,37.3 Z" id="Shape" fill="#000000"></path>
            <path d="M36.599,36.992 C37.925,37.11 38.251,37.942 38.564,38.497 L38.564,34.093 C38.566,33.892 38.502,33.759 38.402,33.67 C38.164,33.456 37.258,33.435 37.258,33.435 L37.258,33.09 L40.319,33.09 L40.319,46.273 C40.319,46.273 40.292,46.803 40.788,46.961 C40.962,47.035 41.597,47.066 41.597,47.066 L41.597,47.368 L38.613,47.368 C38.613,47.368 38.615,46.044 38.595,45.631 C37.942,47.102 37.106,47.517 36.339,47.531 C33.68,47.436 33.206,43.994 33.206,42.308 C33.299,40.481 33.751,36.992 36.599,36.992 L36.599,36.992 L36.599,36.992 Z M35.459,45.37 C36.408,48.907 38.321,45.961 38.497,44.539 C38.663,42.522 38.829,40.766 38.401,39.342 C37.688,36.703 35.744,37.134 35.364,39.319 C34.985,41.501 35.27,44.397 35.459,45.37 L35.459,45.37 L35.459,45.37 Z" id="Shape" fill="#000000"></path>
            <path d="M32.75,47.363 L28.68,47.363 L28.68,47.037 C28.68,47.037 29.129,47.016 29.333,46.967 C29.641,46.878 29.808,46.616 29.783,46.283 L29.783,38.44 C29.77,38.119 29.546,37.837 29.071,37.813 C28.941,37.779 28.883,37.787 28.698,37.776 C28.709,37.585 28.675,37.597 28.698,37.443 C29.937,37.462 31.679,37.277 31.679,37.277 L31.679,46.319 C31.679,46.319 31.684,46.886 32.026,46.963 C32.28,47.017 32.75,47.037 32.75,47.037 L32.75,47.363 L32.75,47.363 L32.75,47.363 Z" id="Shape" fill="#000000"></path>
            <path d="M32.522,31.104 L28.452,31.104 L28.452,30.778 C28.452,30.778 28.901,30.757 29.104,30.708 C29.413,30.618 29.579,30.356 29.555,30.025 L29.555,22.18 C29.543,21.859 29.318,21.577 28.843,21.554 C28.713,21.518 28.655,21.528 28.47,21.516 C28.481,21.326 28.446,21.337 28.47,21.183 C29.708,21.202 31.45,21.017 31.45,21.017 L31.45,30.059 C31.45,30.059 31.457,30.626 31.797,30.704 C32.051,30.757 32.522,30.778 32.522,30.778 L32.522,31.104 L32.522,31.104 L32.522,31.104 Z" id="Shape" fill="#000000"></path>
            <path d="M24.233,12.116 C24.407,12.11 24.436,12.11 24.565,12.116 C24.567,12.596 24.586,13.06 24.512,13.658 C24.5,13.915 24.363,14.262 24.203,14.453 C24.052,14.662 23.852,14.868 23.433,14.974 C23.031,15.068 22.65,14.98 22.555,14.962 C22.034,14.78 21.948,14.638 21.769,14.404 C21.689,14.308 21.582,14.115 21.502,13.935 C21.356,13.617 21.411,13.711 21.292,13.324 C21.233,13.569 21.104,13.735 20.966,13.977 C20.664,14.435 20.265,14.744 19.612,14.97 C19.265,15.055 18.413,15.064 17.867,14.807 C17.511,14.59 17.375,14.512 17.073,14.135 C16.758,13.717 16.608,13.355 16.518,12.837 C16.483,12.635 16.491,12.707 16.476,12.493 C16.44,12.137 16.455,11.967 16.496,11.614 C16.526,11.431 16.538,11.349 16.614,11.163 C16.717,10.792 16.965,10.507 17.055,10.356 C17.373,9.984 17.867,9.735 18.117,9.62 C19.184,9.178 19.659,8.99 20.608,8.509 C21.213,8.224 21.213,8.09 21.213,8.079 C21.236,7.945 21.213,5.931 21.213,5.931 C21.163,5.461 21.075,5.248 20.691,5.04 C20.074,4.621 19.291,4.836 19.219,4.852 C18.935,4.872 18.319,5.29 18.319,5.753 C18.282,6.049 18.875,6.033 19.144,6.274 C19.351,6.405 19.493,6.796 19.41,7.188 C19.267,7.576 19.22,7.753 18.733,7.984 C18.461,8.042 18.081,8.03 17.749,7.877 C17.523,7.746 17.429,7.675 17.198,7.323 C17.132,7.184 17.036,7.065 17.024,6.666 C17.024,6.286 17.084,6.132 17.178,5.859 C17.407,5.379 17.772,4.946 18.532,4.708 C18.737,4.613 19.097,4.525 19.22,4.518 C19.85,4.349 21.156,4.456 21.748,4.708 C22.016,4.816 22.9,5.04 23.078,6.393 C23.079,6.605 23.078,13.36 23.078,13.36 C23.103,13.461 23.028,13.914 23.409,14.107 C23.598,14.162 23.7,14.154 23.86,14.076 C24.099,13.941 24.139,13.663 24.158,13.525 C24.208,13.025 24.233,12.772 24.233,12.116 L24.233,12.116 L24.233,12.116 Z M21.215,8.638 C20.621,8.99 20.103,9.265 19.471,9.606 C18.628,10.058 18.518,10.936 18.518,11.368 C18.47,11.807 18.464,12.566 18.534,12.982 C18.534,12.971 18.498,13.869 19.269,14.157 C19.91,14.354 20.174,14.006 20.339,13.902 C20.494,13.768 20.637,13.602 20.792,13.297 C21.052,12.777 21.215,12.104 21.215,11.82 L21.215,8.769 C21.215,8.574 21.215,8.824 21.215,8.638 L21.215,8.638 L21.215,8.638 Z" id="Shape" fill="#000000"></path>
            <path d="M53.25,0.511 L53.25,47.594" id="Shape" stroke="#000000" stroke-width="0.5"></path>
        </g>
    </g>
</svg>