<?xml version="1.0" encoding="UTF-8"?>
<svg width="12px" height="35px" viewBox="0 0 12 35" version="1.1" xmlns="http://www.w3.org/2000/svg" xmlns:xlink="http://www.w3.org/1999/xlink">
    <!-- Generator: Sketch 40.3 (33839) - http://www.bohemiancoding.com/sketch -->
    <title>service.arrow.left</title>
    <desc>Created with Sketch.</desc>
    <defs></defs>
    <g id="Page-1" stroke="none" stroke-width="1" fill="none" fill-rule="evenodd" stroke-linecap="square">
        <g id="service.arrow.left" transform="translate(6.000000, 17.500000) scale(-1, 1) translate(-6.000000, -17.500000) " stroke="#1D1D1B">
            <path d="M0.5,0.5 L11.5,17.2" id="Line"></path>
            <path d="M0.5,34.5 L11.5,17.5" id="Line"></path>
        </g>
    </g>
</svg>