<?xml version="1.0" encoding="UTF-8"?>
<svg width="73px" height="43px" viewBox="0 0 73 43" version="1.1" xmlns="http://www.w3.org/2000/svg" xmlns:xlink="http://www.w3.org/1999/xlink">
    <!-- Generator: Sketch 40.3 (33839) - http://www.bohemiancoding.com/sketch -->
    <title>slider.etykieta</title>
    <desc>Created with Sketch.</desc>
    <defs>
        <ellipse id="path-1" cx="50.7789474" cy="7.57894737" rx="5.68421053" ry="5.68421053"></ellipse>
        <filter x="-50%" y="-50%" width="200%" height="200%" filterUnits="objectBoundingBox" id="filter-2">
            <feMorphology radius="1" operator="erode" in="SourceAlpha" result="shadowSpreadInner1"></feMorphology>
            <feGaussianBlur stdDeviation="1.5" in="shadowSpreadInner1" result="shadowBlurInner1"></feGaussianBlur>
            <feOffset dx="0" dy="3" in="shadowBlurInner1" result="shadowOffsetInner1"></feOffset>
            <feComposite in="shadowOffsetInner1" in2="SourceAlpha" operator="arithmetic" k2="-1" k3="1" result="shadowInnerInner1"></feComposite>
            <feColorMatrix values="0 0 0 0 0   0 0 0 0 0   0 0 0 0 0  0 0 0 0.5 0" type="matrix" in="shadowInnerInner1"></feColorMatrix>
        </filter>
    </defs>
    <g id="Page-1" stroke="none" stroke-width="1" fill="none" fill-rule="evenodd">
        <g id="slider.etykieta" transform="translate(0.000000, 1.000000)">
            <g id="Oval">
                <use fill="#FFFFFF" fill-rule="evenodd" xlink:href="#path-1"></use>
                <use fill="black" fill-opacity="1" filter="url(#filter-2)" xlink:href="#path-1"></use>
            </g>
            <polygon id="Shape" fill="#DDDDDD" points="36.7578947 35.1663158 4.47157895 41.6463158 0.416842105 21.4105263 32.7031579 14.9684211 42.2905263 23.5705263"></polygon>
            <polygon id="Shape" fill="#E62A3D" points="36.1894737 35.8105263 1.81894737 38.6147368 0.0757894737 17.0905263 34.4463158 14.2863158 43.3894737 24.3663158"></polygon>
            <path d="M39.9410526,19.5915789 C40.9263158,18.8715789 42.2905263,18.5684211 42.9726316,20.0084211 C43.9957895,22.2063158 43.3515789,24.2147368 43.3515789,24.2147368 C43.3515789,24.2147368 40.9263158,24.1768421 39.9789474,22.8884211 C39.0315789,21.6 38.9936842,20.3115789 39.9410526,19.5915789 L39.9410526,19.5915789 Z" id="Shape" stroke="#000000" stroke-width="2"></path>
            <path d="M9.77684211,22.4715789 C9.77684211,21.9410526 9.89052632,21.4105263 10.08,20.9178947 C10.2694737,20.4252632 10.5726316,20.0084211 10.9136842,19.6673684 C11.2547368,19.3263158 11.6715789,19.0231579 12.1642105,18.8336842 C12.6568421,18.6442105 13.1494737,18.5305263 13.7178947,18.5305263 C14.2484211,18.5305263 14.7789474,18.6442105 15.2715789,18.8336842 C15.7642105,19.0231579 16.1810526,19.3263158 16.5221053,19.6673684 C16.8631579,20.0084211 17.1663158,20.4631579 17.3557895,20.9178947 C17.5452632,21.4105263 17.6589474,21.9031579 17.6589474,22.4715789 C17.6589474,23.0021053 17.5452632,23.5326316 17.3557895,24.0252632 C17.1663158,24.5178947 16.8631579,24.9347368 16.5221053,25.2757895 C16.1810526,25.6168421 15.7642105,25.92 15.2715789,26.1094737 C14.7789474,26.2989474 14.2863158,26.4126316 13.7178947,26.4126316 C13.1873684,26.4126316 12.6568421,26.2989474 12.1642105,26.1094737 C11.6715789,25.92 11.2547368,25.6168421 10.9136842,25.2757895 C10.5726316,24.9347368 10.2694737,24.48 10.08,24.0252632 C9.89052632,23.5326316 9.77684211,23.0021053 9.77684211,22.4715789 M15.6126316,22.4715789 C15.6126316,21.9410526 15.4231579,21.4863158 15.0821053,21.1073684 C14.7031579,20.7284211 14.2484211,20.5389474 13.7178947,20.5389474 C13.1873684,20.5389474 12.7326316,20.7284211 12.3536842,21.1073684 C11.9747368,21.4863158 11.8231579,21.9410526 11.8231579,22.4715789 C11.8231579,23.0021053 12.0126316,23.4568421 12.3536842,23.8357895 C12.7326316,24.2147368 13.1494737,24.4042105 13.7178947,24.4042105 C14.2484211,24.4042105 14.7031579,24.2147368 15.0821053,23.8357895 C15.4231579,23.4568421 15.6126316,23.0021053 15.6126316,22.4715789 M21.9410526,18.1136842 L23.6084211,19.0610526 L15.3852632,33.4989474 L13.8694737,32.6273684 L21.9410526,18.1136842 M19.8189474,29.1410526 C19.8189474,28.6105263 19.9326316,28.08 20.1221053,27.5873684 C20.3115789,27.0947368 20.6147368,26.6778947 20.9557895,26.3368421 C21.2968421,25.9957895 21.7136842,25.6926316 22.2063158,25.5031579 C22.6989474,25.3136842 23.1915789,25.2 23.76,25.2 C24.2905263,25.2 24.8210526,25.3136842 25.3136842,25.5031579 C25.8063158,25.6926316 26.2231579,25.9957895 26.5642105,26.3368421 C26.9052632,26.6778947 27.2084211,27.1326316 27.3978947,27.5873684 C27.5873684,28.08 27.7010526,28.5726316 27.7010526,29.1410526 C27.7010526,29.6715789 27.5873684,30.2021053 27.3978947,30.6947368 C27.2084211,31.1873684 26.9052632,31.6042105 26.5642105,31.9452632 C26.2231579,32.2863158 25.8063158,32.5894737 25.3136842,32.7789474 C24.8210526,32.9684211 24.3284211,33.0821053 23.76,33.0821053 C23.2294737,33.0821053 22.6989474,32.9684211 22.2063158,32.7789474 C21.7136842,32.5894737 21.2968421,32.2863158 20.9557895,31.9452632 C20.6147368,31.6042105 20.3115789,31.1494737 20.1221053,30.6947368 C19.8947368,30.2021053 19.8189474,29.6715789 19.8189474,29.1410526 M25.6168421,29.1410526 C25.6168421,28.6105263 25.4273684,28.1557895 25.0863158,27.7768421 C24.7073684,27.3978947 24.2526316,27.2084211 23.7221053,27.2084211 C23.1915789,27.2084211 22.7368421,27.3978947 22.3578947,27.7768421 C21.9789474,28.1557895 21.8273684,28.6105263 21.8273684,29.1410526 C21.8273684,29.6715789 22.0168421,30.1642105 22.3578947,30.5052632 C22.7368421,30.8842105 23.1536842,31.0736842 23.7221053,31.0736842 C24.2526316,31.0736842 24.7073684,30.8842105 25.0863158,30.5052632 C25.4273684,30.1642105 25.6168421,29.6715789 25.6168421,29.1410526" id="Shape" fill="#FFFFFF"></path>
            <g id="Group" transform="translate(43.200000, 0.000000)" stroke="#000000" stroke-width="2">
                <path d="M12.7705263,5.41894737 C12.7705263,5.41894737 2.12210526,14.7031579 0.189473684,24.2147368 C0.189473684,24.2147368 4.32,25.3894737 4.32,29.0652632" id="Shape"></path>
                <path d="M24.1288978,0.564670867 C24.1288978,0.564670867 25.1265851,-0.0576205122 25.5881219,0.215769631 C26.2162507,0.587840076 27.3978947,2.50105263 27.3978947,2.50105263 C32.7031579,15.12 22.3578947,20.8042105 0.378947368,24.2147368" id="Shape"></path>
            </g>
        </g>
    </g>
</svg>